curl --request POST \
  --url https://api.firecrawl.dev/v1/scrape \
  --header 'Authorization: Bearer fc-13a74094dc9a493b835d8a7debb70c17' \
  --header 'Content-Type: application/json' \
  --data '{
  "url": "https://www.baidu.com/"
}'

{"success":true,"data":{"markdown":"[百度首页](/) [设置](javascript:;) [登录](https://passport.baidu.com/v2/?login&tpl=mn&u=http%3A%2F%2Fwww.baidu.com%2F&sms=5)\n\n[新闻](http://news.baidu.com) [hao123](https://www.hao123.com?src=from_pc) [地图](http://map.baidu.com) [贴吧](http://tieba.baidu.com/) [视频](https://haokan.baidu.com/?sfrom=baidu-top) [图片](http://image.baidu.com/) [网盘](https://pan.baidu.com?from=1026962h) [文库](https://wenku.baidu.com/?fr=bdpcindex) [AI助手](https://chat.baidu.com/search?isShowHello=1&pd=csaitab&setype=csaitab&extParamsJson=%7B%22enter_type%22%3A%22home_tab%22%7D)\n\n[更多](http://www.baidu.com/more/)\n\n[![](https://pss.bdstatic.com/static/superman/img/topnav/newfanyi-da0cea8f7e.png)\\\\\n翻译](http://fanyi.baidu.com/)\n\n[![](https://pss.bdstatic.com/static/superman/img/topnav/newxueshuicon-a5314d5c83.png)\\\\\n学术](http://xueshu.baidu.com/)\n\n[![](https://pss.bdstatic.com/static/superman/img/topnav/newbaike-889054f349.png)\\\\\n百科](https://baike.baidu.com)\n\n[![](https://pss.bdstatic.com/static/superman/img/topnav/newzhidao-da1cf444b0.png)\\\\\n知道](https://zhidao.baidu.com)\n\n[![](https://pss.bdstatic.com/static/superman/img/topnav/newjiankang-f03b804b4b.png)\\\\\n健康](https://jiankang.baidu.com/widescreen/home)\n\n[![](https://pss.bdstatic.com/static/superman/img/topnav/yingxiaoicon-612169cc36.png)\\\\\n营销推广](http://e.baidu.com/ebaidu/home?refer=887)\n\n[![](https://pss.bdstatic.com/static/superman/img/topnav/newzhibo-a6a0831ecd.png)\\\\\n直播](https://live.baidu.com/)\n\n[![](https://pss.bdstatic.com/static/superman/img/topnav/newyinyue-03ecd1e9b9.png)\\\\\n音乐](http://music.taihe.com)\n\n[![](https://pss.bdstatic.com/static/superman/img/topnav/chengpian-9981cd1fdb.png)\\\\\n橙篇](https://cp.baidu.com/?sa=bdindex)\n\n[查看全部百度产品 >](http://www.baidu.com/more/)\n\n设置 [登录](https://passport.baidu.com/v2/?login&tpl=mn&u=http%3A%2F%2Fwww.baidu.com%2F&sms=5)\n\n[关闭热搜](javascript:;) [开启热搜](javascript:;)\n\n__ 牛年贺岁，登录设置新春皮肤！ __\n\n![](//www.baidu.com/img/PCtm_d9c8750bed0b3c7d089fa7d55720d6cf.png)![](//www.baidu.com/img/PCtm_d9c8750bed0b3c7d089fa7d55720d6cf.png)![](//www.baidu.com/img/PCfb_5bf082d29588c07f842ccde3f97243ea.png)\n\n[![到百度首页](//www.baidu.com/img/flexible/logo/pc/result.png)![到百度首页](//www.baidu.com/img/flexible/logo/pc/result@2.png)![到百度首页](//www.baidu.com/img/flexible/logo/pc/peak-result.png)](/) __ 按图片搜索\n\n输入法\n\n- [手写](javascript:;)\n- [拼音](javascript:;)\n- [关闭](javascript:;)\n\n[__ __](https://top.baidu.com/board?platform=pc&sa=pcindex_entry)__ 换一换\n\n- [__ 0“中国热”说明了什么？](https://www.baidu.com/s?wd=%E2%80%9C%E4%B8%AD%E5%9B%BD%E7%83%AD%E2%80%9D%E8%AF%B4%E6%98%8E%E4%BA%86%E4%BB%80%E4%B9%88%EF%BC%9F&sa=fyb_n_homepage&rsv_dl=fyb_n_homepage&from=super&cl=3&tn=baidutop10&fr=top1000&rsv_idx=2&hisfilter=1)\n- [__ 5这哪是爬山 这是要拿下黄山](https://www.baidu.com/s?wd=%E8%BF%99%E5%93%AA%E6%98%AF%E7%88%AC%E5%B1%B1+%E8%BF%99%E6%98%AF%E8%A6%81%E6%8B%BF%E4%B8%8B%E9%BB%84%E5%B1%B1&sa=fyb_n_homepage&rsv_dl=fyb_n_homepage&from=super&cl=3&tn=baidutop10&fr=top1000&rsv_idx=2&hisfilter=1)\n- [__ 1儿子从美国打110替杭州独居母亲报警](https://www.baidu.com/s?wd=%E5%84%BF%E5%AD%90%E4%BB%8E%E7%BE%8E%E5%9B%BD%E6%89%93110%E6%9B%BF%E6%9D%AD%E5%B7%9E%E7%8B%AC%E5%B1%85%E6%AF%8D%E4%BA%B2%E6%8A%A5%E8%AD%A6&sa=fyb_n_homepage&rsv_dl=fyb_n_homepage&from=super&cl=3&tn=baidutop10&fr=top1000&rsv_idx=2&hisfilter=1) 热\n- [__ 6周红波任南京市委书记](https://www.baidu.com/s?wd=%E5%91%A8%E7%BA%A2%E6%B3%A2%E4%BB%BB%E5%8D%97%E4%BA%AC%E5%B8%82%E5%A7%94%E4%B9%A6%E8%AE%B0&sa=fyb_n_homepage&rsv_dl=fyb_n_homepage&from=super&cl=3&tn=baidutop10&fr=top1000&rsv_idx=2&hisfilter=1)\n- [__ 242万拍下888888手机号买家：赚大了](https://www.baidu.com/s?wd=42%E4%B8%87%E6%8B%8D%E4%B8%8B888888%E6%89%8B%E6%9C%BA%E5%8F%B7%E4%B9%B0%E5%AE%B6%EF%BC%9A%E8%B5%9A%E5%A4%A7%E4%BA%86&sa=fyb_n_homepage&rsv_dl=fyb_n_homepage&from=super&cl=3&tn=baidutop10&fr=top1000&rsv_idx=2&hisfilter=1) 热\n- [__ 717岁中专生被7家企业疯抢妈妈骄傲](https://www.baidu.com/s?wd=17%E5%B2%81%E4%B8%AD%E4%B8%93%E7%94%9F%E8%A2%AB7%E5%AE%B6%E4%BC%81%E4%B8%9A%E7%96%AF%E6%8A%A2%E5%A6%88%E5%A6%88%E9%AA%84%E5%82%B2&sa=fyb_n_homepage&rsv_dl=fyb_n_homepage&from=super&cl=3&tn=baidutop10&fr=top1000&rsv_idx=2&hisfilter=1)\n- [__ 3冬季常见传染病有哪些？](https://www.baidu.com/s?wd=%E5%86%AC%E5%AD%A3%E5%B8%B8%E8%A7%81%E4%BC%A0%E6%9F%93%E7%97%85%E6%9C%89%E5%93%AA%E4%BA%9B%EF%BC%9F&sa=fyb_n_homepage&rsv_dl=fyb_n_homepage&from=super&cl=3&tn=baidutop10&fr=top1000&rsv_idx=2&hisfilter=1)\n- [__ 8菲村民分食海龟致3人死亡31人送医](https://www.baidu.com/s?wd=%E8%8F%B2%E6%9D%91%E6%B0%91%E5%88%86%E9%A3%9F%E6%B5%B7%E9%BE%9F%E8%87%B43%E4%BA%BA%E6%AD%BB%E4%BA%A131%E4%BA%BA%E9%80%81%E5%8C%BB&sa=fyb_n_homepage&rsv_dl=fyb_n_homepage&from=super&cl=3&tn=baidutop10&fr=top1000&rsv_idx=2&hisfilter=1)\n- [__ 4日本首相石破茂遭遇车祸 现场曝光](https://www.baidu.com/s?wd=%E6%97%A5%E6%9C%AC%E9%A6%96%E7%9B%B8%E7%9F%B3%E7%A0%B4%E8%8C%82%E9%81%AD%E9%81%87%E8%BD%A6%E7%A5%B8+%E7%8E%B0%E5%9C%BA%E6%9B%9D%E5%85%89&sa=fyb_n_homepage&rsv_dl=fyb_n_homepage&from=super&cl=3&tn=baidutop10&fr=top1000&rsv_idx=2&hisfilter=1)\n- [__ 9黄景瑜直球表达喜欢李雪琴](https://www.baidu.com/s?wd=%E9%BB%84%E6%99%AF%E7%91%9C%E7%9B%B4%E7%90%83%E8%A1%A8%E8%BE%BE%E5%96%9C%E6%AC%A2%E6%9D%8E%E9%9B%AA%E7%90%B4&sa=fyb_n_homepage&rsv_dl=fyb_n_homepage&from=super&cl=3&tn=baidutop10&fr=top1000&rsv_idx=2&hisfilter=1) 热\n\n[关于百度](//home.baidu.com)\n\n[About Baidu](http://ir.baidu.com)\n\n[使用百度前必读](//www.baidu.com/duty)\n\n[帮助中心](https://help.baidu.com/question?prod_id=1)\n\n[企业推广](https://e.baidu.com/?refer=1271)\n\n[京公网安备11000002000001号](http://www.beian.gov.cn/portal/registerSystemInfo?recordcode=11000002000001)\n\n[京ICP证030173号](https://beian.miit.gov.cn)\n\n互联网新闻信息服务许可证11220180008\n\n网络文化经营许可证： 京网文〔2023〕1034-029号\n\n[信息网络传播视听节目许可证 0110516](//www.baidu.com/licence/)\n\n互联网宗教信息服务许可证编号：京（2022）0000043\n\n药品医疗器械网络信息服务备案（京）网药械信息备字（2021）第00159号\n\n医疗器械网络交易服务第三方平台备案凭证（京）网械平台备字（2020）第00002号\n\n药品网络交易服务第三方平台备案凭证（京）网药平台备字〔2023〕第000002号\n\n©2024 Baidu\n\n\n\n\n\n[About Baidu](http://ir.baidu.com)\n\n[使用百度前必读](//www.baidu.com/duty)\n\n[帮助中心](https://help.baidu.com/question?prod_id=1)\n\n[企业推广](https://e.baidu.com/?refer=1271)\n\n[京公网安备11000002000001号](http://www.beian.gov.cn/portal/registerSystemInfo?recordcode=11000002000001)\n\n[京ICP证030173号](https://beian.miit.gov.cn)\n\n互联网新闻信息服务许可证11220180008\n\n网络文化经营许可证： 京网文〔2023〕1034-029号\n\n[信息网络传播视听节目许可证 0110516](//www.baidu.com/licence/)\n\n互联网宗教信息服务许可证编号：京（2022）0000043\n\n药品医疗器械网络信息服务备案（京）网药械信息备字（2021）第00159号\n\n医疗器械网络交易服务第三方平台备案凭证（京）网械平台备字（2020）第00002号\n\n药品网络交易服务第三方平台备案凭证（京）网药平台备字〔2023〕第000002号\n\n©2024 Baidu\n\n**网页** [图片](http://image.baidu.com/i?tn=baiduimage&ps=1&ct=201326592&lm=-1&cl=2&nc=1&ie=utf-8) [资讯](https://www.baidu.com/s?rtt=1&bsst=1&cl=2&tn=news&ie=utf-8) [视频](http://v.baidu.com/v?ct=301989888&rn=20&pn=0&db=0&s=25&ie=utf-8) [笔记](http://www.baidu.com/s?pd=note&rpf=pc) [地图](https://map.baidu.com/?newmap=1&ie=utf-8&from=pstab&s=s) [贴吧](http://tieba.baidu.com/f?fr=wwwt&ie=utf-8) [文库](http://wenku.baidu.com/search?lm=0&od=0&ie=utf-8) [助手](https://chat.baidu.com/search?) [更多](http://www.baidu.com/more/)\n\n辅助模式\n\n![](https://pss.bdstatic.com/static/superman/img/qrcode/qrcode@2x-daf987ad02.png)![](https://pss.bdstatic.com/static/superman/img/qrcode/qrcode-hover@2x-f9b106a848.png)\n\n__ 百度APP扫码登录\n\n百度一下 生活更好","metadata":{"title":"百度一下，你就知道","description":"全球领先的中文搜索引擎、致力于让网民更便捷地获取信息，找到所求。百度超过千亿的中文网页数据库，可以瞬间找到相关的搜索结果。","ogLocaleAlternate":[],"referrer":"always","theme-color":"#ffffff","sourceURL":"https://www.baidu.com/","url":"https://www.baidu.com/","statusCode":200}}}

curl --request POST \
  --url https://api.firecrawl.dev/v1/crawl \
  --header 'Authorization: Bearer fc-13a74094dc9a493b835d8a7debb70c17' \
  --header 'Content-Type: application/json' \
  --data '{
  "url": "https://api.firecrawl.dev/v1/crawl"
}'

{"success":true,"id":"6a4ef9ac-27f2-44e4-b4d5-44c72df44d8f","url":"https://api.firecrawl.dev/v1/crawl/6a4ef9ac-27f2-44e4-b4d5-44c72df44d8f"}

curl --request GET \
  --url https://api.firecrawl.dev/v1/crawl/ec97a8eb-be02-47c8-9f06-a326a903446f \
  --header 'Authorization: Bearer fc-13a74094dc9a493b835d8a7debb70c17'

{"success":true,"status":"scraping","completed":1,"total":3,"creditsUsed":3,"expiresAt":"2024-12-02T10:52:51.000Z","next":"https://api.firecrawl.dev/v1/crawl/ec97a8eb-be02-47c8-9f06-a326a903446f?skip=1","data":[{"markdown":"[百度首页](/) [设置](javascript:;) [登录](https://passport.baidu.com/v2/?login&tpl=mn&u=http%3A%2F%2Fwww.baidu.com%2F&sms=5)\n\n[新闻](http://news.baidu.com) [hao123](https://www.hao123.com?src=from_pc) [地图](http://map.baidu.com) [贴吧](http://tieba.baidu.com/) [视频](https://haokan.baidu.com/?sfrom=baidu-top) [图片](http://image.baidu.com/) [网盘](https://pan.baidu.com?from=1026962h) [文库](https://wenku.baidu.com/?fr=bdpcindex) [AI助手](https://chat.baidu.com/search?isShowHello=1&pd=csaitab&setype=csaitab&extParamsJson=%7B%22enter_type%22%3A%22home_tab%22%7D)\n\n[更多](http://www.baidu.com/more/)\n\n[![](https://pss.bdstatic.com/static/superman/img/topnav/newfanyi-da0cea8f7e.png)\\\\\n翻译](http://fanyi.baidu.com/)\n\n[![](https://pss.bdstatic.com/static/superman/img/topnav/newxueshuicon-a5314d5c83.png)\\\\\n学术](http://xueshu.baidu.com/)\n\n[![](https://pss.bdstatic.com/static/superman/img/topnav/newbaike-889054f349.png)\\\\\n百科](https://baike.baidu.com)\n\n[![](https://pss.bdstatic.com/static/superman/img/topnav/newzhidao-da1cf444b0.png)\\\\\n知道](https://zhidao.baidu.com)\n\n[![](https://pss.bdstatic.com/static/superman/img/topnav/newjiankang-f03b804b4b.png)\\\\\n健康](https://jiankang.baidu.com/widescreen/home)\n\n[![](https://pss.bdstatic.com/static/superman/img/topnav/yingxiaoicon-612169cc36.png)\\\\\n营销推广](http://e.baidu.com/ebaidu/home?refer=887)\n\n[![](https://pss.bdstatic.com/static/superman/img/topnav/newzhibo-a6a0831ecd.png)\\\\\n直播](https://live.baidu.com/)\n\n[![](https://pss.bdstatic.com/static/superman/img/topnav/newyinyue-03ecd1e9b9.png)\\\\\n音乐](http://music.taihe.com)\n\n[![](https://pss.bdstatic.com/static/superman/img/topnav/chengpian-9981cd1fdb.png)\\\\\n橙篇](https://cp.baidu.com/?sa=bdindex)\n\n[查看全部百度产品 >](http://www.baidu.com/more/)\n\n设置 [登录](https://passport.baidu.com/v2/?login&tpl=mn&u=http%3A%2F%2Fwww.baidu.com%2F&sms=5)\n\n[关闭热搜](javascript:;) [开启热搜](javascript:;)\n\n__ 牛年贺岁，登录设置新春皮肤！ __\n\n![](//www.baidu.com/img/PCtm_d9c8750bed0b3c7d089fa7d55720d6cf.png)![](//www.baidu.com/img/PCtm_d9c8750bed0b3c7d089fa7d55720d6cf.png)![](//www.baidu.com/img/PCfb_5bf082d29588c07f842ccde3f97243ea.png)\n\n[![到百度首页](//www.baidu.com/img/flexible/logo/pc/result.png)![到百度首页](//www.baidu.com/img/flexible/logo/pc/result@2.png)![到百度首页](//www.baidu.com/img/flexible/logo/pc/peak-result.png)](/) __ 按图片搜索\n\n输入法\n\n- [手写](javascript:;)\n- [拼音](javascript:;)\n- [关闭](javascript:;)\n\n[__ __](https://top.baidu.com/board?platform=pc&sa=pcindex_entry)__ 换一换\n\n- [__ 0“中国热”说明了什么？](https://www.baidu.com/s?wd=%E2%80%9C%E4%B8%AD%E5%9B%BD%E7%83%AD%E2%80%9D%E8%AF%B4%E6%98%8E%E4%BA%86%E4%BB%80%E4%B9%88%EF%BC%9F&sa=fyb_n_homepage&rsv_dl=fyb_n_homepage&from=super&cl=3&tn=baidutop10&fr=top1000&rsv_idx=2&hisfilter=1)\n- [__ 5这哪是爬山 这是要拿下黄山](https://www.baidu.com/s?wd=%E8%BF%99%E5%93%AA%E6%98%AF%E7%88%AC%E5%B1%B1+%E8%BF%99%E6%98%AF%E8%A6%81%E6%8B%BF%E4%B8%8B%E9%BB%84%E5%B1%B1&sa=fyb_n_homepage&rsv_dl=fyb_n_homepage&from=super&cl=3&tn=baidutop10&fr=top1000&rsv_idx=2&hisfilter=1)\n- [__ 1儿子从美国打110替杭州独居母亲报警](https://www.baidu.com/s?wd=%E5%84%BF%E5%AD%90%E4%BB%8E%E7%BE%8E%E5%9B%BD%E6%89%93110%E6%9B%BF%E6%9D%AD%E5%B7%9E%E7%8B%AC%E5%B1%85%E6%AF%8D%E4%BA%B2%E6%8A%A5%E8%AD%A6&sa=fyb_n_homepage&rsv_dl=fyb_n_homepage&from=super&cl=3&tn=baidutop10&fr=top1000&rsv_idx=2&hisfilter=1) 热\n- [__ 6周红波任南京市委书记](https://www.baidu.com/s?wd=%E5%91%A8%E7%BA%A2%E6%B3%A2%E4%BB%BB%E5%8D%97%E4%BA%AC%E5%B8%82%E5%A7%94%E4%B9%A6%E8%AE%B0&sa=fyb_n_homepage&rsv_dl=fyb_n_homepage&from=super&cl=3&tn=baidutop10&fr=top1000&rsv_idx=2&hisfilter=1)\n- [__ 242万拍下888888手机号买家：赚大了](https://www.baidu.com/s?wd=42%E4%B8%87%E6%8B%8D%E4%B8%8B888888%E6%89%8B%E6%9C%BA%E5%8F%B7%E4%B9%B0%E5%AE%B6%EF%BC%9A%E8%B5%9A%E5%A4%A7%E4%BA%86&sa=fyb_n_homepage&rsv_dl=fyb_n_homepage&from=super&cl=3&tn=baidutop10&fr=top1000&rsv_idx=2&hisfilter=1) 热\n- [__ 717岁中专生被7家企业疯抢妈妈骄傲](https://www.baidu.com/s?wd=17%E5%B2%81%E4%B8%AD%E4%B8%93%E7%94%9F%E8%A2%AB7%E5%AE%B6%E4%BC%81%E4%B8%9A%E7%96%AF%E6%8A%A2%E5%A6%88%E5%A6%88%E9%AA%84%E5%82%B2&sa=fyb_n_homepage&rsv_dl=fyb_n_homepage&from=super&cl=3&tn=baidutop10&fr=top1000&rsv_idx=2&hisfilter=1)\n- [__ 3冬季常见传染病有哪些？](https://www.baidu.com/s?wd=%E5%86%AC%E5%AD%A3%E5%B8%B8%E8%A7%81%E4%BC%A0%E6%9F%93%E7%97%85%E6%9C%89%E5%93%AA%E4%BA%9B%EF%BC%9F&sa=fyb_n_homepage&rsv_dl=fyb_n_homepage&from=super&cl=3&tn=baidutop10&fr=top1000&rsv_idx=2&hisfilter=1)\n- [__ 8菲村民分食海龟致3人死亡31人送医](https://www.baidu.com/s?wd=%E8%8F%B2%E6%9D%91%E6%B0%91%E5%88%86%E9%A3%9F%E6%B5%B7%E9%BE%9F%E8%87%B43%E4%BA%BA%E6%AD%BB%E4%BA%A131%E4%BA%BA%E9%80%81%E5%8C%BB&sa=fyb_n_homepage&rsv_dl=fyb_n_homepage&from=super&cl=3&tn=baidutop10&fr=top1000&rsv_idx=2&hisfilter=1)\n- [__ 4日本首相石破茂遭遇车祸 现场曝光](https://www.baidu.com/s?wd=%E6%97%A5%E6%9C%AC%E9%A6%96%E7%9B%B8%E7%9F%B3%E7%A0%B4%E8%8C%82%E9%81%AD%E9%81%87%E8%BD%A6%E7%A5%B8+%E7%8E%B0%E5%9C%BA%E6%9B%9D%E5%85%89&sa=fyb_n_homepage&rsv_dl=fyb_n_homepage&from=super&cl=3&tn=baidutop10&fr=top1000&rsv_idx=2&hisfilter=1)\n- [__ 9黄景瑜直球表达喜欢李雪琴](https://www.baidu.com/s?wd=%E9%BB%84%E6%99%AF%E7%91%9C%E7%9B%B4%E7%90%83%E8%A1%A8%E8%BE%BE%E5%96%9C%E6%AC%A2%E6%9D%8E%E9%9B%AA%E7%90%B4&sa=fyb_n_homepage&rsv_dl=fyb_n_homepage&from=super&cl=3&tn=baidutop10&fr=top1000&rsv_idx=2&hisfilter=1) 热\n\n[关于百度](//home.baidu.com)\n\n[About Baidu](http://ir.baidu.com)\n\n[使用百度前必读](//www.baidu.com/duty)\n\n[帮助中心](https://help.baidu.com/question?prod_id=1)\n\n[企业推广](https://e.baidu.com/?refer=1271)\n\n[京公网安备11000002000001号](http://www.beian.gov.cn/portal/registerSystemInfo?recordcode=11000002000001)\n\n[京ICP证030173号](https://beian.miit.gov.cn)\n\n互联网新闻信息服务许可证11220180008\n\n网络文化经营许可证： 京网文〔2023〕1034-029号\n\n[信息网络传播视听节目许可证 0110516](//www.baidu.com/licence/)\n\n互联网宗教信息服务许可证编号：京（2022）0000043\n\n药品医疗器械网络信息服务备案（京）网药械信息备字（2021）第00159号\n\n医疗器械网络交易服务第三方平台备案凭证（京）网械平台备字（2020）第00002号\n\n药品网络交易服务第三方平台备案凭证（京）网药平台备字〔2023〕第000002号\n\n©2024 Baidu\n\n\n\n\n\n[About Baidu](http://ir.baidu.com)\n\n[使用百度前必读](//www.baidu.com/duty)\n\n[帮助中心](https://help.baidu.com/question?prod_id=1)\n\n[企业推广](https://e.baidu.com/?refer=1271)\n\n[京公网安备11000002000001号](http://www.beian.gov.cn/portal/registerSystemInfo?recordcode=11000002000001)\n\n[京ICP证030173号](https://beian.miit.gov.cn)\n\n互联网新闻信息服务许可证11220180008\n\n网络文化经营许可证： 京网文〔2023〕1034-029号\n\n[信息网络传播视听节目许可证 0110516](//www.baidu.com/licence/)\n\n互联网宗教信息服务许可证编号：京（2022）0000043\n\n药品医疗器械网络信息服务备案（京）网药械信息备字（2021）第00159号\n\n医疗器械网络交易服务第三方平台备案凭证（京）网械平台备字（2020）第00002号\n\n药品网络交易服务第三方平台备案凭证（京）网药平台备字〔2023〕第000002号\n\n©2024 Baidu\n\n**网页** [图片](http://image.baidu.com/i?tn=baiduimage&ps=1&ct=201326592&lm=-1&cl=2&nc=1&ie=utf-8) [资讯](https://www.baidu.com/s?rtt=1&bsst=1&cl=2&tn=news&ie=utf-8) [视频](http://v.baidu.com/v?ct=301989888&rn=20&pn=0&db=0&s=25&ie=utf-8) [笔记](http://www.baidu.com/s?pd=note&rpf=pc) [地图](https://map.baidu.com/?newmap=1&ie=utf-8&from=pstab&s=s) [贴吧](http://tieba.baidu.com/f?fr=wwwt&ie=utf-8) [文库](http://wenku.baidu.com/search?lm=0&od=0&ie=utf-8) [助手](https://chat.baidu.com/search?) [更多](http://www.baidu.com/more/)\n\n辅助模式\n\n![](https://pss.bdstatic.com/static/superman/img/qrcode/qrcode@2x-daf987ad02.png)![](https://pss.bdstatic.com/static/superman/img/qrcode/qrcode-hover@2x-f9b106a848.png)\n\n__ 百度APP扫码登录\n\n百度一下 生活更好","metadata":{"url":"https://www.baidu.com/","title":"百度一下，你就知道","referrer":"always","sourceURL":"https://www.baidu.com/","statusCode":200,"description":"全球领先的中文搜索引擎、致力于让网民更便捷地获取信息，找到所求。百度超过千亿的中文网页数据库，可以瞬间找到相关的搜索结果。","theme-color":"#ffffff","ogLocaleAlternate":[]}}]}

curl --request POST \
  --url https://api.firecrawl.dev/v1/map \
  --header 'Authorization: Bearer fc-13a74094dc9a493b835d8a7debb70c17' \
  --header 'Content-Type: application/json' \
  --data '{
  "url": "https://www.baidu.com/"
}'


{"success":true,"links":["https://www.baidu.com","https://www.baidu.com/s","https://www.baidu.com/more","http://www.baidu.com/dianjin.php","http://www.baidu.com/aladdin.php","https://www.baidu.com/other.php","https://www.baidu.com/from=844b/ssid=0/s","https://www.baidu.com/from=844b/ssid=9cdd6863313730302d03/s","https://www.baidu.com/from=844b/ssid=966854656e7a696e4a616d79616e675c5c/s","https://www.baidu.com/from=844b/ssid=f20a4a7564795f31323031cd4a/s","https://www.baidu.com/from=844b/ssid=13dd5fead8d0a1cfc9c5ae62aa/s","https://www.baidu.com/from=844b/ssid=7d2866656e6773686977ec06/s","https://www.baidu.com/from=844b/ssid=b7495665726f6e6963615f6c796d7320/s","https://www.baidu.com/from=844b/ssid=0412c9facbc0bed1bbf7bba8d8d1f155/s","https://www.baidu.com/from=844b/ssid=dbfc4459d0a1c0cbd307/s","https://www.baidu.com/from=844b/ssid=1a8f6363b2ccd2abcec4553e/s","https://www.baidu.com/from=844b/ssid=139db4f3d0ecc7c7cbb93d3f/s","https://www.baidu.com/sf/vsearch","https://www.baidu.com/from=844b/ssid=55f7c3a472614f3f/s","https://www.baidu.com/from=844b/ssid=5b13d6f0d4c2d1fdbefd733e/s","http://www.baidu.com/from=844b/ssid=0d78b7e0b6b65fd2bbc9ed6821/s","https://www.baidu.com/from=844b/ssid=e34ac1b5c1b5b1cabcc7313938330259/s","https://www.baidu.com/from=844b/ssid=8ee8bfecb5bd77c1a8c0b4a3ae/s","https://www.baidu.com/from=844b/ssid=6fc6d1f4b9e2cfc2b5c4d0c2cfcad856/s","https://www.baidu.com/from=844b/ssid=75196762323938363136323b86/s","https://www.baidu.com/from=844b/ssid=c5616a7930323530363038381803/s","https://www.baidu.com/from=844b/ssid=841979616e6778757368656e67313638be0c/s","https://www.baidu.com/from=844b/ssid=1722d0a1bbefc4e3b1bbd1a1d6d0c1cb375a/s","https://www.baidu.com/from=844b/ssid=5a4c57494e47544f4e4738387098/s","https://www.baidu.com/from=844b/ssid=933fc7e9b6a8c3b7b0a2b2e9303831311d1d/s","https://www.baidu.com/from=844b/ssid=728f77777777736230310905/s","https://www.baidu.com/from=844b/ssid=d71ae93a/s","https://www.baidu.com/from=844b/ssid=07b6c6e6db45d6aed2ed8630/s","https://www.baidu.com/from=844b/ssid=e3816c737a31303330323236383539622d/s","https://www.baidu.com/from=844b/ssid=cbcdd2fed2feb5c4c8c8b3c07169/s","https://www.baidu.com/from=844b/ssid=7f926c6970656e676a693931337140/s","https://www.baidu.com/from=844b/ssid=8cab7a68616e676e616e616779323333df03/s","https://www.baidu.com/from=844b/ssid=f33ecedec9f9d0a1bafab5c4b9cacac2523f/s"]}

// action not support yet
HttpResponse<String> response = Unirest.post("https://api.firecrawl.dev/v1/scrape")
  .header("Authorization", "Bearer fc-13a74094dc9a493b835d8a7debb70c17")
  .header("Content-Type", "application/json")
  .body("{\n  \"removeBase64Images\": true,\n  \"actions\": [\n    null\n  ],\n  \"location\": {\n    \"languages\": [\n      \"汉语\"\n    ],\n    \"country\": \"中国\"\n  },\n  \"skipTlsVerification\": true,\n  \"mobile\": true,\n  \"waitFor\": 102,\n  \"url\": \"https://www.baidu.com/\",\n  \"formats\": [\n    \"markdown\"\n  ],\n  \"onlyMainContent\": true,\n  \"includeTags\": [\n    \".div\"\n  ],\n  \"excludeTags\": [\n    \".class\"\n  ]\n}")
  .asString();